   0.00100,   0.00209
   0.13300,   0.27133
   0.26400,   0.51149
   0.39500,   0.70759
   0.52600,   0.84625
   0.65700,   0.91870
   0.78800,   0.92130
   0.91900,   0.85565
   1.05000,   0.72838
   1.18100,   0.55050
   1.31200,   0.33648
   1.44300,   0.10309
